{
	"$schema": "http://json-schema.org/draft-07/schema#",
	"$id": "https://gitlab.ow2.org/decoder/pkm-api/-/tree/master/schemas/pkm-acsl-schema-1.0.0.json",
	"title": "ACSL Schema Version 1.0.0 JSON Schema.",
	"description": "ACSL Schema Version 1.0.0 JSON Schema.",
	"type": "object",
	"properties": {
        "function_name": {
			"type": "string",
			"description": "Name of the function being analyzed"
		},
        "loc": {
			"$ref": "#/definitions/loc"
		},
        "kernel_function": {
			"type": "string",
			"description": "TODO"
		},        
        "behaviours": {
			"type": "array",
			"items": {
				"$ref": "#/definitions/behaviour"
			}
		}
    }, 

    "definitions": {
        "behaviour":{
            "$id": "#behaviour",
            "type": "object", 
            "properties":{
                "b_name": {
                    "type": "string",
                    "description": "TODO"
                },
                "b_requires": {
                    "type": "array",
                    "items": {
						"$ref": "#/definitions/identified_predicate_object"
					}
                },
                "b_assumes": {
                    "type": "array",
                    "items": {
						"$ref": "#/definitions/identified_predicate_object"
					}
                },
                "b_post_cond": {
                    "type": "array",
                    "items": {
						"$ref": "#/definitions/b_post_cond_object"
					}
                },
                "b_assigns": {
                    "type": "string",
                    "description": "TODO"
                },
                "b_allocation": {
                    "type": "string",
                    "description": "TODO"
                },
                "b_extended": {
                    "type": "array",
                    "default": []
                }
            }
        },
        "identified_predicate_object":{
            "$ref": "#/definitions/identified_predicate"
        },
        "b_post_cond_object":{
            "type": "object",
            "properties":{
                "termination_kind":{
                    "type":"string"
                },
                "identified_predicate":{
                    "$ref": "#/definitions/identified_predicate"   
                }                        
            }            
        },
        "identified_predicate":{
            "$id": "#identified_predicate",
            "type": "object", 
            "properties":{  
                "ip_id":{
                    "type": "number",
                    "description": "TODO"
                },
                "ip_content":{
                    "type": "object", 
                    "properties":{
                        "predicate":{
                            "$ref": "#/definitions/predicate"
                        }
                    }

                }
            } 
        },            
        "predicate":{
            "$id": "#predicate",
            "type": "object", 
            "properties":{  
                "pred_name":{
                    "enum": [
                        "is_nan",
                        "is_infinite",
                        "is_finite",
                        "is_a_zero",
                        "is_subnormal",
                        "not_subnormal",
                        "negative",
                        "nonnegative",
                        "in_domain",
                        "out_of_domain",
                        "is_plus_infinity",
                        "can_allocate",
                        "cannot_allocate",
                        "nonnull_endptr",
                        "nonnull_p",
                        "nonnull_ptr",
                        "null_endptr",
                        "null_p" 
                    ]
                },
                "pred_loc":{
                    "type": "number",
                    "description": "TODO"
                },
                "pred_content":{
                    "$ref": "#/definitions/pred_content"

                }                    
            },
	       "required": ["pred_loc","pred_content"]               
        },  
        "position": {
            "$id": "#position",
            "type": "object",
            "properties": {
                "pos_path": {
                    "$ref": "#/definitions/url"
                },
                "pos_lnum": {
                    "type": "number",
                    "description": "TODO"
                },
                "pos_bol": {
                    "type": "number",
                    "description": "TODO"
                },
                "pos_cnum": {
                    "type": "number",
                    "description": "TODO"
                }                        
            }
        },        
        "pred_content":{
            "type": "object", 
            "properties":{
                "Pand":{
                    "$ref": "#/definitions/Pand"
                },
                "Papp":{
                    "$ref": "#/definitions/Papp"
                },
                "Prel":{
                    "$ref": "#/definitions/Prel"
                },
                "Pvalid":{
                    "$ref": "#/definitions/Pvalid"
                }
            },
            "oneOf":[
                {"required": ["Pand"]},
                {"required": ["Papp"]}, 
                {"required": ["Prel"]},
                {"required": ["Pvalid"]}
            ]            
        },
        "Pand":{
            "$id": "#Pand",
            "type": "object", 
            "properties":{  
                "predicate":{
                    "type": "object", 
                    "properties":{ 
                        "pred_loc":{
                            "$ref": "#/definitions/loc"
                        },
                        "pred_content":{
                            "type": "object",
                            "properties":{
                                "Pvalid":{
                                    "$ref": "#/definitions/Pvalid"
                                }
                            }

                        }
                    }
                }
            }
        },        
        "Papp":{
            "$id": "#Papp",
            "type": "object", 
            "properties":{  
                "logic_info":{
                    "type": "object",
                    "description": "TODO",
                    "properties":{
                        "l_var_info":{
                            "type":"object",
                            "properties":{
                                "logic_var":{
                                    "type":"object",
                                    "description": "TODO",
                                    "properties":{
                                        "lv_name":{
                                            "type":"string",
                                            "description": "TODO"
                                        },
                                        "lv_id":{
                                            "type":"number",
                                            "description": "TODO"
                                        },
                                        "lv_type":{
                                            "type":"object",
                                            "properties":{
                                                "Ctype":{
                                                    "type":"object",
                                                    "properties":{
                                                        "TVoid":{
                                                            "type":"array",
                                                            "default": []
                                                        }
                                                    }                                                    
                                                }
                                            }
                                        },
                                        "lv_kind":{
                                            "type":"string",
                                            "description": "TODO"                                            
                                        },
                                        "lv_origin":{
                                            "type":"object",
                                            "properties":{
                                                "option":{
                                                    "type":"string"
                                                }
                                            }
                                        },
                                        "lv_attr":{
                                            "type": "array",
                                            "default": []
                                        }
                                    }
                                }
                            }                            
                        },
                        "l_labels":{
                            "type": "array",
                            "default": []
                        },
                        "l_tparams":{
                            "type": "array",
                            "default": []
                        },
                        "logic_type":{
                            "type":"object",
                            "properties":{
                                "option":{
                                    "type":"string",
                                    "description": "TODO"
                                }
                            }
                        },
                        "l_profile":{},
                        "l_body":{
                            "type": "string",
                            "description": "TODO"
                        }
                    }
                },
                "Papp_labels":{
                    "type": "array",
                    "default": []
                },
                "Papp_terms":{
                    "type": "array",
                    "items":{
                        "$ref": "#/definitions/term"
                    }
                }
            }
        },        
        "Prel":{
            "$id": "#Prel",
            "type": "object", 
            "properties":{  
                "relation":{
                    "type":"string"
                },
                "term":{
                    "$ref": "#/definitions/term"
                }
            }
        },    
        "loc": {
            "$id": "#loc",
            "type": "object",
            "properties": {
                "pos_start": {
                    "$ref": "#/definitions/position"
                },
                "pos_end": {
                    "$ref": "#/definitions/position"
                }
            }
        },
        "Pvalid":{
            "$id": "#Pvalid",
            "type": "object",
            "properties":{
                "BuiltinLabel":{
                    "type": "string",
                    "description": "TODO"
                },
                "term":{
                    "$ref": "#/definitions/term"
                }
            }
        },
        "term":{
            "$id": "#term",
            "type": "object",
            "properties":{
                "term_node":{
                    "$ref": "#/definitions/term_node"
                },
                "term_loc":{
                    "$ref": "#/definitions/loc"
                },
                "term_type":{
                    "$ref": "#/definitions/term_type"
                },
                "term_name":{
                    "type": "array",
                    "default": []
                }                
            }            
        },
        "term_node":{
            "$id": "#term_node",
            "type": "object",
            "properties":{  
                "TLval":{
                    "type": "object",
                    "properties":{
                        "TVar":{
                            "type": "object",
                            "properties":{
                                "logic_var":{
                                    "$ref": "#/definitions/logic_var"
                                }

                            }   
                        },
                        "TNoOffset": {
                            "type": "string"
                        },
                        "TMem":{
                            "$ref": "#/definitions/TMem"
                        },
                        "TField":{
                            "$ref": "#/definitions/TField"
                        }
                    },
                    "oneOf":[
                        {"requires": ["TVar","TNoOffset"]},
                        {"requires": ["TMem","TField"]}
                    ]
                },
                "TBinOp":{
                    "type":"object",
                    "properties":{
                        "binop":{
                           "$ref": "#/definitions/binop"
                        },
                        "term":{
                            "$ref": "#/definitions/term"
                        }
                    }                    
                },
                "TLogic_coerce":{
                    "type":"object",
                    "properties":{
                        "TLogic_coverce_type":{
                            "type":"string"
                        },
                        "term":{
                            "$ref": "#/definitions/term"
                        }
                    }
                    
                },
                "Tat":{
                    "type": "object",
                    "properties":{
                        "term":{
                            "$ref": "#/definitions/term"
                        },
                        "BuiltinLabel":{
                            "type": "string"
                        }
                }
            }
            },
            "oneOf":[
                {"required": ["TLval"]},
                {"required": ["TBinOp"]},
                {"required": ["TLogic_coerce"]},
                {"required": ["Tat"]}
            ]
        },
        "TMem":{
            "type":"object",
            "properties":{
                "term":{
                    "$ref": "#/definitions/term"
                }                    
            }
        },
        "TField":{
            "type":"object",
            "properties":{
                "TField_info":{
                    "$ref": "#/definitions/TField_info"
                },
                "TField_term":{
                    "$ref": "#/definitions/TField_term"
                }
            }
        },
        "TField_info":{
            "type":"object",
            "properties":{
                "forig_name":{
                    "type": "string"
                },
                "fname":{
                    "type": "string"
                },
                "ftype":{
                    "$ref": "#/definitions/ftype"
                },   
                "fbitfield":{
                    "type": "string"
                },
                "fattr":{
                    "type": "array",
                    "default": []
                },
                "floc":{
                    "$ref": "#/definitions/loc"
                },    
                "faddrof":{
                    "type": "boolean"
                }                
            }
        },        
        "TField_term":{
            "type":"object",
            "properties":{
                "TNoOffset":{
                    "type": "string"
                }
            }
        },
        "ftype":{
            "type":"object",
            "properties":{
                "TInt":{
                    "$ref": "#/definitions/TInt"
                }
            }            
        },
        "fbitfield":{
            "type":"object",
            "properties":{
                "option":{
                    "type": "string"
                }
            }            
        },                
        "logic_var":{
            "$id": "#logic_var",
            "type": "object",
            "properties":{  
                "lv_name":{
                    "type": "string",
                    "description": "TODO"                                        
                },
                "lv_id":{
                    "type": "number",
                    "description": "TODO"                        
                },                
                "lv_type":{
                    "type": "object",
                    "properties":{ 
                        "Ctype":{
                            "$ref": "#/definitions/Ctype"
                        }
                    }                    
                },
                "lv_kind":{
                    "type": "string",
                    "description": "TODO"                      
                }, 
                "lv_origin":{
                    "type":"object",
                    "properties":{
                        "option":{
                            "type":"string"
                        },
                        "value":{
                            "type":"object",
                            "properties":{
                                "varinfo":{
                                    "type":"object",
                                    "properties":{
                                        "vname":{
                                            "type":"string"
                                        },
                                        "vid":{
                                            "type":"number"
                                        }                                        
                                    }                                                     
                                }
                            }                            
                        }
                    }
                },
                "lv_att":{
                    "type": "array",
                    "default": []
                }                
            }

        },
        "Ctype":{
            "type":"object",
            "properties":{ 
                "TPtr":{
                    "$ref": "#/definitions/TPtr"                                                           
                },
                "TInt":{
                    "$ref": "#/definitions/TInt"  
                },
                "TVoid":{
                    "type": "array",
                    "default": []
                }                
            },
            "oneOf":[
                {"required": ["TPtr"]},
                {"required": ["TInt"]}]
        }, 
        "TPtr":{
            "properties":{ 
                "TComp":{
                    "$ref": "#/definitions/TComp"
                },
                "TPtr_attributes":{
                    "type": "array",
                    "default": []
                }
            }                                                        
        },        
        "TComp":{
            "type": "object",
            "properties":{   
                "TComp_compinfo":{
                    "$ref": "#/definitions/TComp_compinfo"                 
                },
                "TComp_bitssize":{
                    "$ref": "#/definitions/TComp_bitssize"                   
                },
                "TComp_atrrs":{
                    "$ref": "#/definitions/TComp_atrrs"            
                }               
            }            
        },
        "TComp_compinfo":{
            "type": "object",
            "properties":{
                "cstruct":{
                    "type":"boolean"
                },
                "corig_name": {
                    "type": "string"
                },
                "cname": {
                    "type": "string"
                },
                "ckey": {
                    "type": "number"
                },   
                "cattr": {
                    "type": "array",
                    "default": []
                }
            }            
        },
        "TComp_bitssize":{
            "type": "object",
            "properties":{  
                "scache":{
                    "type": "string",
                    "description": "TODO"                              
                }
            }            
        }, 
        "TComp_atrrs":{
            "type": "array",
            "default": []
        },
        "term_type":{
            "oneOf": [
                { 
                    "type": "string"
                },
                { 
                    "$ref": "#/definitions/term_type_object"
                }
            ]
        },            
        "term_type_object":{
            "type": "object",
            "properties":{
                "Ctype":{
                    "$ref": "#/definitions/Ctype"
                }                
            }
        },
        "pred_name_b_post_cond":{
            "type":"string",
            "enum": [
                "allocation",
                "consumed_range",
                "equal_magnitude_result",
                "errno_set",
                "freed",
                "finite_result",
                "finite_arg",
                "fp_infinite",
                "fp_zero",
                "fp_subnormal",
                "fp_nan",                
                "fp_normal",
                "initialization",
                "never_terminates",
                "null_or_correct_result",
                "null_or_valid_result",
                "null_result",
                "opposite_result",
                "position_subset",
                "positive_result",
                "random48_initialized",
                "res_finite",
                "result_counter",
                "result_domain",
                "result_error_or_valid_fd",
                "result_is_nan",
                "result_ok_or_error",
                "result_plus_infinity",
                "result_range",
                "result_zero",
                "same_result",
                "zero_initialization"
            ]
        },
        "pred_name_b_assumes":{
            "type":"string",
            "enum": [
                "is_nan",
                "is_infinite",
                "is_finite",
                "is_a_zero",
                "is_subnormal",
                "not_subnormal",
                "negative",
                "nonnegative",
                "in_domain",
                "out_of_domain",
                "is_plus_infinity",
                "can_allocate",
                "cannot_allocate",
                "nonnull_endptr",
                "nonnull_p",
                "nonnull_ptr",
                "null_endptr",
                "null_p" 
            ]
        }, 
        "pred_name_b_requires":{
            "type":"string",
            "enum": [
                "abs_representable",
                "arg_positive",
                "alignment_is_a_suitable_power_of_two",
                "base_range",
                "finite_arg",
                "finite_result",
                "finite_logic_result",
                "finite_logic_res",
                "freeable",
                "initialization",
                "initialized_seed16v",                    
                "initialized_xsubi",
                "null_or_valid_string_command",
                "random48_initialized",
                "res_finite",
                "separation",
                "tagp_valid_string", 
                "valid_memptr",
                "valid_name",
                "valid_endptr",
                "valid_nptr",
                "valid_function_compar",
                "valid_template"
            ]
        },
        "TInt":{
            "type":"object",
            "attributes":{
                "TInt_kind":{
                    "type": "string",
                    "enum":["IInt","IChar","IUShort"]
                },
                "TInt_attrs":{
                    "type":"array",
                    "items":{
                        "$ref": "#/definitions/Attr"
                    }
                }
            }            
        },
        "TFloat":{
            "type":"object",
            "attributes":{
                "TFloat_kind":{
                    "type": "string",
                    "enum":["FDouble","FFloat","FLongDouble"]
                },
                "TFloat_attrs":{
                    "type":"array",
                    "default": []
                }
            }            
        },  
        "Attr":{
            "type": "object",
            "properties":{
                "Attr_string":{
                    "type":"string",
                    "enum":["const","fc_stdlib","arraylen","restrict"]
                
                },
                "Attrparam_list": {
                    "type":"array",
                    "items":{
                        "$ref": "#/definitions/AStr"
                    }
                }
            }
        },
        "AStr": {
            "type":"string",
            "enum":["stdlib.h"]            
        },
        "binop": {
            "type":"string",
            "enum":["PlusA","IndexPI","PlusPI","Mult","MinusA"]            
        },
        "url": {
			"description": "Tool web address where information about the tool can be found",
			"type": "string"				
		}
    }
}