{
  "name": "The Graphic library",
  "units": 
  [
    {
      "name": "The Graphic Unit",
      "classes": 
      [
        {
          "name": "vector",
          "fields": 
          [
            {
              "name": "int x, y, z"
            }
          ],
          "methods": 
          [
            {
              "name": "void add_vector(struct vector * first, struct vector * second, struct vector * res)",
              "doc": "adds two vectors.  The implementation applies the following transformation: "
            },
            {
              "name": "void sub_vector(struct vector * first, struct vector * second, struct vector * res)",
              "doc": "substract two vectors.  The implementation applies the following transformation: "
            },
            {
              "name": "int product(struct vector * first, struct vector * second)",
              "doc": "Computes the scalar product of two vectors."
            },
            {
              "name": "int norm_square(struct vector * first)",
              "doc": "Computes the square of the length of a vector. The implementation calls product(first, first)."
            }
          ]
        }
      ]
    }
  ]
}
